<?xml version="1.0" encoding="utf-8"?>
<!-- Generator: Adobe Illustrator 16.0.0, SVG Export Plug-In . SVG Version: 6.00 Build 0)  -->
<!DOCTYPE svg PUBLIC "-//W3C//DTD SVG 1.1//EN" "http://www.w3.org/Graphics/SVG/1.1/DTD/svg11.dtd">
<svg version="1.1" id="Layer_1" xmlns="http://www.w3.org/2000/svg" xmlns:xlink="http://www.w3.org/1999/xlink" x="0px" y="0px"
	 width="491.36px" height="153.438px" viewBox="0 0 491.36 153.438" style="enable-background:new 0 0 491.36 153.438;"
	 xml:space="preserve">
<polygon style="fill:#1A1A1A;" points="220.134,84.354 205.715,141.168 220.771,141.168 220.771,151.645 193.736,151.645 
	193.736,145.262 208.154,88.448 194.223,88.448 194.223,77.971 220.134,77.971 "/>
<polygon style="fill:#1A1A1A;" points="247.922,114.807 261.967,151.645 250.588,151.645 239.286,118.901 239.286,151.645 
	228.658,151.645 228.658,77.971 239.286,77.971 239.286,110.752 250.588,77.971 261.967,77.971 "/>
<g>
	<path style="fill:#1A1A1A;" d="M298.502,137.338c0,10.313-5.096,15.482-15.281,15.51c-10.164,0-15.244-5.17-15.244-15.51V77.971
		h10.625v59.367c0,3.33,1.541,4.994,4.619,4.994c3.104,0,4.652-1.664,4.652-4.994V77.971h10.629V137.338z"/>
	<polygon style="fill:#1A1A1A;" points="346.682,77.971 374.243,77.971 374.243,88.448 357.309,88.448 357.309,109.551 
		371.879,109.551 371.879,120.063 357.309,120.063 357.309,141.168 374.243,141.168 374.243,151.645 346.682,151.645 	"/>
	<polygon style="fill:#1A1A1A;" points="382.129,77.971 392.758,77.971 402.817,120.703 402.817,77.971 412.657,77.971 
		412.657,151.645 402.03,151.645 392.344,110.264 392.344,151.645 382.129,151.645 	"/>
	<path style="fill:#1A1A1A;" d="M452.194,137.338c0,10.313-5.092,15.482-15.281,15.51c-10.16,0-15.246-5.17-15.246-15.51V92.278
		c0-10.314,5.086-15.472,15.246-15.472c10.189,0,15.281,5.157,15.281,15.472V137.338z M441.569,92.278
		c0-3.307-1.541-4.971-4.617-4.996h-0.074c-3.059,0-4.58,1.664-4.58,4.996v45.061c0,3.33,1.535,4.994,4.615,4.994
		c3.105,0,4.656-1.664,4.656-4.994V92.278L441.569,92.278z"/>
	<path style="fill:#1A1A1A;" d="M491.36,137.338c0,10.313-5.094,15.482-15.281,15.51c-10.164,0-15.242-5.17-15.242-15.51V77.971
		h10.625v59.367c0,3.33,1.541,4.994,4.617,4.994c3.105,0,4.656-1.664,4.656-4.994V77.971h10.625V137.338z"/>
	<path style="fill:#1A1A1A;" d="M307.139,92.278c0-10.314,5.084-15.472,15.246-15.472c10.188,0,15.281,5.157,15.281,15.472v9.912
		h-10.625v-9.912c0-3.307-1.539-4.971-4.617-4.996h-0.074c-3.059,0-4.582,1.664-4.582,4.996v6.684c0,3.279,3.313,7.297,9.949,12.055
		c6.635,4.73,9.949,10.4,9.949,17.01v9.314c0,10.34-5.078,15.51-15.242,15.51c-10.189-0.025-15.285-5.195-15.285-15.51v-9.916
		h10.629v9.914c0,3.33,1.553,4.994,4.656,4.994c3.078,0,4.617-1.664,4.617-4.994v-8.412c0-3.555-3.316-7.709-9.949-12.467
		c-6.637-4.73-9.953-10.488-9.953-17.273V92.278z"/>
	<polygon style="fill:#1A1A1A;" points="313.979,66.583 320.133,72.737 325.786,72.737 332.094,66.43 327.668,62.003 
		323.192,66.476 322.727,66.476 318.405,62.155 313.979,66.584 	"/>
	<path style="fill:#1A1A1A;" d="M193.737,9.942h10.269c5.919,0.017,8.881,3.258,8.881,9.728v26.78c0,6.454-3.102,9.689-9.304,9.704
		h-9.846V9.942L193.737,9.942z M200.403,16.514v33.069h2.92c1.932,0,2.898-1.045,2.898-3.134v-26.78
		c0-2.104-0.966-3.155-2.898-3.155H200.403z"/>
	<path style="fill:#1A1A1A;" d="M237.217,47.18c0,6.469-3.195,9.712-9.586,9.728c-6.375,0-9.564-3.241-9.564-9.728V18.916
		c0-6.47,3.189-9.704,9.564-9.704c6.391,0,9.586,3.234,9.586,9.704V47.18z M230.552,18.916c0-2.074-0.967-3.117-2.897-3.135h-0.047
		c-1.916,0-2.875,1.045-2.875,3.135V47.18c0,2.089,0.967,3.133,2.898,3.133c1.947,0,2.921-1.044,2.921-3.133V18.916z"/>
	<polygon style="fill:#1A1A1A;" points="254.834,9.942 261.502,9.942 267.813,36.746 267.813,9.942 273.985,9.942 273.985,56.154 
		267.319,56.154 261.243,30.198 261.243,56.154 254.834,56.154 	"/>
	<polygon style="fill:#1A1A1A;" points="316.852,41.598 324.602,9.942 331.268,9.942 331.268,56.154 324.885,56.154 324.885,30.222 
		319.184,56.154 314.661,56.154 308.797,30.222 308.797,56.154 302.344,56.154 302.344,9.942 309.01,9.942 	"/>
	<polygon style="fill:#1A1A1A;" points="337.393,9.942 354.68,9.942 354.68,16.514 344.059,16.514 344.059,29.75 353.196,29.75 
		353.196,36.345 344.059,36.345 344.059,49.582 354.68,49.582 354.68,56.154 337.393,56.154 	"/>
	<path style="fill:#1A1A1A;" d="M378.305,47.18c0,6.469-3.195,9.712-9.586,9.728c-6.375,0-9.564-3.241-9.564-9.728V18.916
		c0-6.47,3.189-9.704,9.564-9.704c6.391,0,9.586,3.234,9.586,9.704v6.217h-6.666v-6.217c0-2.074-0.965-3.117-2.896-3.135h-0.047
		c-1.918,0-2.875,1.045-2.875,3.135V47.18c0,2.089,0.967,3.132,2.898,3.132c1.943,0,2.92-1.043,2.92-3.132v-6.219h6.666V47.18
		L378.305,47.18z"/>
	<polygon style="fill:#1A1A1A;" points="395.807,33.048 404.614,56.154 397.479,56.154 390.389,35.614 390.389,56.154 
		383.723,56.154 383.723,9.943 390.389,9.943 390.389,30.505 397.479,9.943 404.614,9.943 	"/>
	<path style="fill:#1A1A1A;" d="M427.2,39.761l2.166,16.393h-6.732l-1.295-9.798h-6.811l-1.32,9.798h-6.711l2.166-16.322
		l4.711-29.89h9.143L427.2,39.761z M420.467,39.761l-2.545-19.22l-2.547,19.22H420.467z"/>
	<polygon style="fill:#1A1A1A;" points="445.338,9.942 452.004,9.942 458.315,36.746 458.315,9.942 464.487,9.942 464.487,56.154 
		457.819,56.154 451.745,30.198 451.745,56.154 445.338,56.154 	"/>
	<path style="fill:#1A1A1A;" d="M489.194,39.761l2.166,16.393h-6.736l-1.295-9.798h-6.807l-1.32,9.798h-6.711l2.166-16.322
		l4.711-29.89h9.143L489.194,39.761z M482.459,39.761l-2.545-19.22l-2.545,19.22H482.459z"/>
	<polygon style="fill:#1A1A1A;" points="280.108,9.942 297.397,9.942 297.397,16.514 286.774,16.514 286.774,29.75 295.913,29.75 
		295.913,36.345 286.774,36.345 286.774,49.582 297.397,49.582 297.397,56.154 280.108,56.154 	"/>
	<polygon style="fill:#1A1A1A;" points="283.071,3.464 286.932,7.323 290.479,7.323 294.434,3.366 291.657,0.59 288.852,3.397 
		288.559,3.397 285.848,0.687 	"/>
	<path style="fill:#1A1A1A;" d="M76.092,0c-3.663,0-6.632,1.805-6.632,4.031v6.73v6.729v122.487v6.73v6.729h13.264v-6.729v-6.73
		V17.491v-6.729v-6.73C82.724,1.805,79.755,0,76.092,0"/>
</g>
<g>
	<g>
		<g>
			<defs>
				<polygon id="SVGID_1_" points="19.451,10.365 0,24.617 19.451,38.868 137.207,38.868 117.757,24.617 137.207,10.365 				"/>
			</defs>
			<use xlink:href="#SVGID_1_"  style="overflow:visible;fill:#1A1A1A;"/>
			<clipPath id="SVGID_2_">
				<use xlink:href="#SVGID_1_"  style="overflow:visible;"/>
			</clipPath>
		</g>
	</g>
</g>
<g>
	<polygon style="fill:#1A1A1A;" points="137.425,10.365 137.208,10.365 137.425,10.584 	"/>
	<polygon style="fill:#1A1A1A;" points="137.425,38.651 137.208,38.868 137.425,38.868 	"/>
</g>
<g>
	<g>
		<polygon id="SVGID_4_" style="fill:#1A1A1A;" points="19.451,75.264 0,89.516 19.451,103.768 19.451,103.766 19.451,103.768 
			137.207,103.768 117.757,89.516 137.207,75.264 		"/>
	</g>
	<g>
		<g>
			<defs>
				<polygon id="SVGID_3_" points="19.451,75.264 0,89.516 19.451,103.768 19.451,103.766 19.451,103.768 137.207,103.768 
					117.757,89.516 137.207,75.264 				"/>
			</defs>
			<use xlink:href="#SVGID_3_"  style="overflow:visible;fill:#1A1A1A;"/>
			<clipPath id="SVGID_5_">
				<use xlink:href="#SVGID_3_"  style="overflow:visible;"/>
			</clipPath>
		</g>
	</g>
</g>
<g>
	<polygon style="fill:#1A1A1A;" points="137.425,75.263 137.208,75.263 137.425,75.482 	"/>
	<polygon style="fill:#1A1A1A;" points="137.425,103.549 137.208,103.768 137.425,103.768 	"/>
</g>
<g>
	<g>
		<g>
			<defs>
				<polygon id="SVGID_6_" points="19.649,42.769 39.1,57.02 19.649,71.272 137.406,71.272 156.857,57.02 137.406,42.769 				"/>
			</defs>
			<use xlink:href="#SVGID_6_"  style="overflow:visible;fill:#1A1A1A;"/>
			<clipPath id="SVGID_7_">
				<use xlink:href="#SVGID_6_"  style="overflow:visible;"/>
			</clipPath>
		</g>
	</g>
</g>
<g>
	<polygon style="fill:#EB1F15;" points="19.431,42.769 19.649,42.769 19.431,42.986 	"/>
	<polygon style="fill:#EB1F15;" points="19.431,71.054 19.649,71.272 19.431,71.272 	"/>
</g>
</svg>
