<?xml version="1.0" encoding="utf-8"?>
<!-- Generator: Adobe Illustrator 16.0.0, SVG Export Plug-In . SVG Version: 6.00 Build 0)  -->
<!DOCTYPE svg PUBLIC "-//W3C//DTD SVG 1.1//EN" "http://www.w3.org/Graphics/SVG/1.1/DTD/svg11.dtd">
<svg version="1.1" id="Capa_1" xmlns="http://www.w3.org/2000/svg" xmlns:xlink="http://www.w3.org/1999/xlink" x="0px" y="0px"
	 width="512px" height="512px" viewBox="1662 0 512 512" enable-background="new 1662 0 512 512" xml:space="preserve">
<g>
	<circle fill="none" stroke="#191919" stroke-width="16" stroke-miterlimit="10" cx="1918" cy="301.444" r="137.909"/>
	<circle fill="none" stroke="#191919" stroke-width="16" stroke-miterlimit="10" cx="1918" cy="301.442" r="195.498"/>
	
		<rect x="1855.598" y="10.059" fill="none" stroke="#191919" stroke-width="16" stroke-miterlimit="10" width="124.804" height="51.731"/>
	
		<line fill="none" stroke="#191919" stroke-width="16" stroke-miterlimit="10" x1="1949.953" y1="61.791" x2="1949.953" y2="108.542"/>
	
		<line fill="none" stroke="#191919" stroke-width="16" stroke-miterlimit="10" x1="1886.047" y1="61.791" x2="1886.047" y2="108.542"/>
</g>
<g>
	<g>
		<path fill="#191919" d="M1861.929,289.947v-4.563l15.012-0.735v3.679c0,7.801,2.943,11.479,9.125,11.479
			c6.181,0,9.419-3.532,9.419-10.597v-21.339h-0.295c-2.502,2.943-7.064,5.592-13.54,5.592c-11.479,0-20.604-8.241-20.604-25.166
			v-13.981c0-16.188,9.566-26.049,25.166-26.049c15.306,0,24.872,9.86,24.872,26.049v55.042c0,15.601-9.271,24.872-24.725,24.872
			S1861.929,305.548,1861.929,289.947z M1895.485,247.267v-12.804c0-7.653-3.386-11.774-9.419-11.774
			c-6.034,0-9.419,4.121-9.419,11.774v12.804c0,7.653,3.385,11.773,9.419,11.773
			C1892.099,259.041,1895.485,254.921,1895.485,247.267z"/>
		<path fill="#191919" d="M1974.953,234.316v53.865c0,16.188-9.566,26.049-25.166,26.049c-15.601,0-25.167-9.86-25.167-26.049
			v-53.865c0-16.188,9.566-26.049,25.167-26.049C1965.386,208.267,1974.953,218.128,1974.953,234.316z M1940.22,234.464v53.57
			c0,7.652,3.385,11.773,9.566,11.773c6.181,0,9.565-4.121,9.565-11.773v-53.57c0-7.653-3.385-11.774-9.565-11.774
			C1943.605,222.69,1940.22,226.811,1940.22,234.464z"/>
	</g>
	<g>
		<path fill="#191919" d="M1898.737,394.619v-43.805h-0.181l-7.932,34.791h-5.679l-7.932-34.791h-0.18v43.805h-9.014v-63.094h12.528
			l7.481,33.891h0.18l7.392-33.891h12.889v63.094H1898.737z"/>
		<path fill="#191919" d="M1918.568,394.619v-63.094h9.554v63.094H1918.568z"/>
		<path fill="#191919" d="M1960.119,394.619l-12.528-41.822h-0.18v41.822h-9.014v-63.094h10.636l11.267,37.586h0.181v-37.586h9.013
			v63.094H1960.119z"/>
	</g>
</g>
</svg>
